追加機能
                    担当
パズルの3D表示        和田
スコア計算            山田
時間制限　　　　　　　　宮崎
効果音               宮崎
ホーム画面            梅村
ルール説明          　梅村


コンボについて
3個消し限定
制限時間10秒
操作時間により倍率上昇最大1.5倍
1コンボあたりのスコアは100とする。
通常盤面のため10コンボまで＊余裕があれば増やす？

コンボ倍率
1   1.0
2   1.25
3   1.275
4   1.3
5   1.325
6   1.35
7   1.375
8   1.4
9   1.425
10  1.45

時間制限ボーナス
4秒未満    1.5
7.5秒未満  1.25
10秒未満   1.1

タイムアップ  1.0
